{"_id":{"$oid":"61fde70237e9027235ae59e1"},"cod":"D-DMKA","modelo":"AIRBUS ","matrícula":"D-DMKA","precio":1.872398E+06,"velocidad":128.0,"país":"Alemania","tags":["AIRBUS"],"dimensiones":{"altura":12.0,"longitud":113.0,"peso":123.0}}
{"_id":{"$oid":"61fde72437e9027235ae59e2"},"cod":"N-KASS","modelo":"F16","matrícula":"J-GYM","precio":1.92083923E+08,"velocidad":312.0,"país":"Angola","tags":["BOEING"],"dimensiones":{"altura":21.0,"longitud":12.0,"peso":3122.0},"altura":"111","longitud":"222","peso":"333"}
{"_id":{"$oid":"61fde74537e9027235ae59e3"},"cod":"OO-SKOE","modelo":"F22 RAPTOR","matrícula":"OO-SKOE","precio":1.278921E+06,"velocidad":321.0,"país":"Nueva Zelanda","tags":["Cessna","128"],"dimensiones":{"altura":12.0,"longitud":312.0,"peso":123213.0}}
{"_id":{"$oid":"61ff96a6934c145f288e13db"},"cod":"EC-JGJI","modelo":"Dassault Falcon 7x","matrícula":"EC-JGJI","precio":7.484676E+06,"velocidad":365.0,"país":"España","tags":["Dassault","Falcon","7x"],"dimensiones":{"altura":43.0,"longitud":56.0,"peso":8987.0}}
{"_id":{"$oid":"61ff96da934c145f288e13dc"},"cod":"F-KJHB","modelo":"Beechcraft 350i","matrícula":"F-KJHB","precio":8.656787E+06,"velocidad":563.0,"país":"Francia","tags":["Beechcraft","350i"],"dimensiones":{"altura":65.0,"longitud":90.0,"peso":875.0}}
{"_id":{"$oid":"61ff9711934c145f288e13dd"},"cod":"N-MBKJH","modelo":"Diamond DA421","matrícula":"N-MBKJH","precio":7.6876998E+07,"velocidad":435.0,"país":"Estados Unidos","tags":["Diamond","DA421"],"dimensiones":{"altura":78.0,"longitud":64.0,"peso":768.0}}
{"_id":{"$oid":"61ff97af934c145f288e13de"},"cod":"RA-SKE","modelo":"AIRBUS A340","matrícula":"RA-SKE","precio":8.3290329E+07,"velocidad":218.0,"país":"Rusia","tags":["AIRBUS","A340"],"dimensiones":{"altura":21.0,"longitud":123.0,"peso":31.0}}
{"_id":{"$oid":"61ff97f1934c145f288e13df"},"cod":"G-JDED","modelo":"LandFighter","matrícula":"G-JDED","precio":9.12012211E+08,"velocidad":292.0,"país":"Reino Unido","tags":["LandFighter"],"dimensiones":{"altura":21.0,"longitud":12.0,"peso":1232.0}}
{"_id":{"$oid":"61ff98d2934c145f288e13e0"},"cod":"JA-LASB","modelo":"Nakajima K6","matrícula":"JA-LASB","precio":4.8290343E+07,"velocidad":643.0,"país":"Japón","tags":["Nakajima","K6"],"dimensiones":{"altura":21.0,"longitud":13.0,"peso":411.0}}
{"_id":{"$oid":"61ff9928934c145f288e13e1"},"cod":"CF-JEDF","modelo":"BAE Hawk","matrícula":"CF-JEDF","precio":8.9234023E+07,"velocidad":429.0,"país":"Canadá","tags":["BAE","Hawk"],"dimensiones":{"altura":21.0,"longitud":31.0,"peso":4242.0}}
{"_id":{"$oid":"6202e3bfc4d73924269a1c65"},"cod":"N-HAMM","modelo":"Falcon ","matricula":"N-HAMM","precio":1.82909128E+08,"velocidad":671.0,"país":"Estados Unidos","dimensiones":{"altura":31.0,"longitud":122.0,"peso":3112.0}}
